Project1
…
WHR.HAC1%>% summarize(min(Happiness.Score, na.rm=T))

##   min(Happiness.Score, na.rm = T)
## 1                           2.905

WHR.HAC1%>% summarize(max(Happiness.Score, na.rm=T))

##   max(Happiness.Score, na.rm = T)
## 1                           7.526

WHR.HAC1%>% group_by(Country) %>% summarize(sd(Happiness.Score, na.rm=T))

## `summarise()` ungrouping output (override with `.groups` argument)

## # A tibble: 161 x 2
##    Country     `sd(Happiness.Score, na.rm = T)`
##    <fct>                                  <dbl>
##  1 Afghanistan                               NA
##  2 Albania                                   NA
##  3 Algeria                                   NA
##  4 Angola                                    NA
##  5 Argentina                                 NA
##  6 Armenia                                   NA
##  7 Australia                                 NA
##  8 Austria                                   NA
##  9 Azerbaijan                                NA
## 10 Bahrain                                   NA
## # … with 151 more rows

WHR.HAC1%>% group_by(Country) %>% summarize(min(Happiness.Score, na.rm=T))

## `summarise()` ungrouping output (override with `.groups` argument)

## # A tibble: 161 x 2
##    Country     `min(Happiness.Score, na.rm = T)`
##    <fct>                                   <dbl>
##  1 Afghanistan                              3.36
##  2 Albania                                  4.66
##  3 Algeria                                  6.36
##  4 Angola                                   3.87
##  5 Argentina                                6.65
##  6 Armenia                                  4.36
##  7 Australia                                7.31
##  8 Austria                                  7.12
##  9 Azerbaijan                               5.29
## 10 Bahrain                                  6.22
## # … with 151 more rows

WHR.HAC1%>% group_by(Country) %>% summarize(max(Happiness.Score, na.rm=T))

## `summarise()` ungrouping output (override with `.groups` argument)

## # A tibble: 161 x 2
##    Country     `max(Happiness.Score, na.rm = T)`
##    <fct>                                   <dbl>
##  1 Afghanistan                              3.36
##  2 Albania                                  4.66
##  3 Algeria                                  6.36
##  4 Angola                                   3.87
##  5 Argentina                                6.65
##  6 Armenia                                  4.36
##  7 Australia                                7.31
##  8 Austria                                  7.12
##  9 Azerbaijan                               5.29
## 10 Bahrain                                  6.22
## # … with 151 more rows
…
WHR.HAC1%>% summarize(sd(Lower.Confidence.Interval, na.rm=T))

##   sd(Lower.Confidence.Interval, na.rm = T)
## 1                                 1.148043

WHR.HAC1%>% summarize(min(Upper.Confidence.Interval, na.rm=T))

##   min(Upper.Confidence.Interval, na.rm = T)
## 1                                     3.078

WHR.HAC1%>% group_by(Country, Region) %>% summarize(sd(Lower.Confidence.Interval, na.rm=T))

## `summarise()` regrouping output by 'Country' (override with `.groups` argument)

## # A tibble: 161 x 3
## # Groups:   Country [161]
##    Country     Region                      `sd(Lower.Confidence.Interval, na.rm…
##    <fct>       <fct>                                                       <dbl>
##  1 Afghanistan Southern Asia                                                  NA
##  2 Albania     Central and Eastern Europe                                     NA
##  3 Algeria     Middle East and Northern A…                                    NA
##  4 Angola      Sub-Saharan Africa                                             NA
##  5 Argentina   Latin America and Caribbean                                    NA
##  6 Armenia     Central and Eastern Europe                                     NA
##  7 Australia   Australia and New Zealand                                      NA
##  8 Austria     Western Europe                                                 NA
##  9 Azerbaijan  Central and Eastern Europe                                     NA
## 10 Bahrain     Middle East and Northern A…                                    NA
## # … with 151 more rows
…
## Warning in min(Upper.Confidence.Interval, na.rm = T): no non-missing arguments
## to min; returning Inf

## Warning in min(Upper.Confidence.Interval, na.rm = T): no non-missing arguments
## to min; returning Inf

## Warning in min(Upper.Confidence.Interval, na.rm = T): no non-missing arguments
## to min; returning Inf

## Warning in min(Upper.Confidence.Interval, na.rm = T): no non-missing arguments
## to min; returning Inf

## `summarise()` regrouping output by 'Country' (override with `.groups` argument)

## # A tibble: 161 x 3
## # Groups:   Country [161]
##    Country     Region                     `min(Upper.Confidence.Interval, na.rm…
##    <fct>       <fct>                                                       <dbl>
##  1 Afghanistan Southern Asia                                                3.43
##  2 Albania     Central and Eastern Europe                                   4.76
##  3 Algeria     Middle East and Northern …                                   6.48
##  4 Angola      Sub-Saharan Africa                                           3.98
##  5 Argentina   Latin America and Caribbe…                                   6.74
##  6 Armenia     Central and Eastern Europe                                   4.45
##  7 Australia   Australia and New Zealand                                    7.38
##  8 Austria     Western Europe                                               7.19
##  9 Azerbaijan  Central and Eastern Europe                                   5.36
## 10 Bahrain     Middle East and Northern …                                   6.31
## # … with 151 more rows
…
## Warning in max(Upper.Confidence.Interval, na.rm = T): no non-missing arguments
## to max; returning -Inf

## Warning in max(Upper.Confidence.Interval, na.rm = T): no non-missing arguments
## to max; returning -Inf

## Warning in max(Upper.Confidence.Interval, na.rm = T): no non-missing arguments
## to max; returning -Inf

## Warning in max(Upper.Confidence.Interval, na.rm = T): no non-missing arguments
## to max; returning -Inf

## `summarise()` regrouping output by 'Country' (override with `.groups` argument)

## # A tibble: 161 x 3
## # Groups:   Country [161]
##    Country     Region                     `max(Upper.Confidence.Interval, na.rm…
##    <fct>       <fct>                                                       <dbl>
##  1 Afghanistan Southern Asia                                                3.43
##  2 Albania     Central and Eastern Europe                                   4.76
##  3 Algeria     Middle East and Northern …                                   6.48
##  4 Angola      Sub-Saharan Africa                                           3.98
##  5 Argentina   Latin America and Caribbe…                                   6.74
##  6 Armenia     Central and Eastern Europe                                   4.45
##  7 Australia   Australia and New Zealand                                    7.38
##  8 Austria     Western Europe                                               7.19
##  9 Azerbaijan  Central and Eastern Europe                                   5.36
## 10 Bahrain     Middle East and Northern …                                   6.31
## # … with 151 more rows

WHR.HAC1%>% group_by(Country, Region) %>% summarize(sd(Lower.Confidence.Interval, na.rm=T))

## `summarise()` regrouping output by 'Country' (override with `.groups` argument)

## # A tibble: 161 x 3
## # Groups:   Country [161]
##    Country     Region                      `sd(Lower.Confidence.Interval, na.rm…
##    <fct>       <fct>                                                       <dbl>
##  1 Afghanistan Southern Asia                                                  NA
##  2 Albania     Central and Eastern Europe                                     NA
##  3 Algeria     Middle East and Northern A…                                    NA
##  4 Angola      Sub-Saharan Africa                                             NA
##  5 Argentina   Latin America and Caribbean                                    NA
##  6 Armenia     Central and Eastern Europe                                     NA
##  7 Australia   Australia and New Zealand                                      NA
##  8 Austria     Western Europe                                                 NA
##  9 Azerbaijan  Central and Eastern Europe                                     NA
## 10 Bahrain     Middle East and Northern A…                                    NA
## # … with 151 more rows
…
## Warning in min(Upper.Confidence.Interval, na.rm = T): no non-missing arguments
## to min; returning Inf

## Warning in min(Upper.Confidence.Interval, na.rm = T): no non-missing arguments
## to min; returning Inf

## Warning in min(Upper.Confidence.Interval, na.rm = T): no non-missing arguments
## to min; returning Inf

## Warning in min(Upper.Confidence.Interval, na.rm = T): no non-missing arguments
## to min; returning Inf

## `summarise()` regrouping output by 'Country' (override with `.groups` argument)

## # A tibble: 161 x 3
## # Groups:   Country [161]
##    Country     Region                     `min(Upper.Confidence.Interval, na.rm…
##    <fct>       <fct>                                                       <dbl>
##  1 Afghanistan Southern Asia                                                3.43
##  2 Albania     Central and Eastern Europe                                   4.76
##  3 Algeria     Middle East and Northern …                                   6.48
##  4 Angola      Sub-Saharan Africa                                           3.98
##  5 Argentina   Latin America and Caribbe…                                   6.74
##  6 Armenia     Central and Eastern Europe                                   4.45
##  7 Australia   Australia and New Zealand                                    7.38
##  8 Austria     Western Europe                                               7.19
##  9 Azerbaijan  Central and Eastern Europe                                   5.36
## 10 Bahrain     Middle East and Northern …                                   6.31
## # … with 151 more rows
…
